<?xml version="1.0" encoding="utf-8"?>
<!-- Generator: Adobe Illustrator 22.1.0, SVG Export Plug-In . SVG Version: 6.00 Build 0)  -->
<svg version="1.1"
	 id="svg3942" inkscape:version="0.92.4 (5da689c313, 2019-01-14)" sodipodi:docname="controller_smartphone-moOde.svg" xmlns:cc="http://creativecommons.org/ns#" xmlns:dc="http://purl.org/dc/elements/1.1/" xmlns:inkscape="http://www.inkscape.org/namespaces/inkscape" xmlns:rdf="http://www.w3.org/1999/02/22-rdf-syntax-ns#" xmlns:sodipodi="http://sodipodi.sourceforge.net/DTD/sodipodi-0.dtd" xmlns:svg="http://www.w3.org/2000/svg"
	 xmlns="http://www.w3.org/2000/svg" xmlns:xlink="http://www.w3.org/1999/xlink" x="0px" y="0px" viewBox="0 0 138 275"
	 enable-background="new 0 0 138 275" xml:space="preserve">
<sodipodi:namedview  bordercolor="#666666" borderopacity="1" gridtolerance="10" guidetolerance="10" id="namedview3944" inkscape:current-layer="layer1" inkscape:cx="86.386392" inkscape:cy="21.448917" inkscape:pageopacity="0" inkscape:pageshadow="2" inkscape:window-height="1137" inkscape:window-maximized="1" inkscape:window-width="1920" inkscape:window-x="1272" inkscape:window-y="-8" inkscape:zoom="1.7163636" objecttolerance="10" pagecolor="#ffffff" showgrid="false">
	</sodipodi:namedview>
<g id="Smartphone">
	<path id="capture" d="M135.3,52.9h2.4c0.2,0,0.3,0.1,0.3,0.3v17.5c0,0.2-0.1,0.3-0.3,0.3h-2.4V52.9z"/>
	<g id="base_smartphone_int">
		<path id="path3887" fill="#3B3A3C" d="M117.2,275H21.5c-10.3,0-18.8-8.4-18.8-18.8V18.8C2.7,8.4,11.1,0,21.5,0h95.7
			C127.5,0,136,8.4,136,18.8v237.5C135.9,266.6,127.5,275,117.2,275z"/>
	</g>
	<path id="base_smartphone_int_1_" d="M117.2,0.9c9.8,0,17.8,8,17.8,17.8v237.5c0,9.8-8,17.8-17.8,17.8H21.5
		c-9.8,0-17.8-8-17.8-17.8V18.8C3.7,9,11.7,1,21.5,1h95.7 M117.2,0H21.5C11.1,0,2.7,8.4,2.7,18.8v237.5c0,10.3,8.4,18.8,18.8,18.8
		h95.7c10.3,0,18.8-8.4,18.8-18.8V18.8C135.9,8.4,127.5,0,117.2,0L117.2,0z"/>
	<rect id="screen" x="9.6" y="31.6" fill="#5A5A5A" width="119.5" height="211.2"/>
	<g id="camera">
		<circle id="circle3892" cx="45.6" cy="17.2" r="3.9"/>
		<circle id="circle3894" fill="#D3D3D3" cx="45.6" cy="17.2" r="2.5"/>
	</g>
	<g id="speaker">
		<path id="path3897" d="M81,20H57.6c-1.6,0-3-1.3-3-3l0,0c0-1.6,1.3-3,3-3H81c1.6,0,3,1.3,3,3l0,0C84,18.6,82.7,20,81,20z"/>
		<path id="path3899" fill="#D3D3D3" d="M80.9,18.6H57.8c-0.9,0-1.6-0.7-1.6-1.6l0,0c0-0.9,0.7-1.6,1.6-1.6h23.1
			c0.9,0,1.6,0.7,1.6,1.6l0,0C82.5,17.9,81.7,18.6,80.9,18.6z"/>
	</g>
	<g id="home">
		
			<ellipse id="circle3902" transform="matrix(0.1355 -0.9908 0.9908 0.1355 -195.0018 291.0838)" cx="69.306" cy="257.289" rx="10.8" ry="10.8"/>
		<circle id="circle3904" fill="#D3D3D3" cx="69.3" cy="257.3" r="8.6"/>
	</g>
	<path id="power" d="M2.7,34.3H0.3c-0.2,0-0.3,0.1-0.3,0.3v8.1C0,42.9,0.1,43,0.3,43h2.4V34.3z"/>
	<path id="vol_x2B_" d="M2.7,52.7H0.3C0.1,52.7,0,52.9,0,53v17.5c0,0.2,0.1,0.3,0.3,0.3h2.4V52.7z"/>
	<path id="vol-" d="M2.7,76.2H0.3c-0.2,0-0.3,0.1-0.3,0.3V94c0,0.2,0.1,0.3,0.3,0.3h2.4V76.2z"/>
</g>
<g id="Calque_1">
	<g id="g3917" display="none">
		<g id="g3915" display="inline">
			<path id="path3911" fill="#3B3A3C" d="M20,273.5c-10.2,0-18.5-8.3-18.5-18.5V20C1.5,9.8,9.8,1.5,20,1.5h154.4
				c10.2,0,18.5,8.3,18.5,18.5v235c0,10.2-8.3,18.5-18.5,18.5H20z"/>
			<path id="path3913" d="M174.4,3c9.4,0,17,7.6,17,17v235c0,9.4-7.6,17-17,17H20c-9.4,0-17-7.6-17-17V20c0-9.4,7.6-17,17-17H174.4
				 M174.4,0H20C9,0,0,9,0,20v235c0,11,9,20,20,20h154.4c11,0,20-9,20-20V20C194.4,9,185.4,0,174.4,0L174.4,0z"/>
		</g>
	</g>
	<g id="bluetooth">
		<g id="g3921">
			<circle id="circle3919" fill="#3B3A3C" cx="82" cy="91" r="42.5"/>
		</g>
		<path id="path3923" fill="#1D977F" d="M62.2,106.2c0.6,0.8,1.6,1.2,2.5,1.2c0.7,0,1.4-0.2,2-0.7l9.5-7.7v22.9
			c0,1.2,0.7,2.3,1.8,2.9c0.4,0.2,0.9,0.3,1.4,0.3c0.7,0,1.4-0.2,2-0.7l20-16c0.8-0.6,1.2-1.5,1.2-2.5s-0.4-1.9-1.2-2.5l0,0L86,91
			l15.4-12.3c0.8-0.6,1.2-1.5,1.2-2.5s-0.4-1.9-1.2-2.5l-20-16c-1-0.8-2.3-0.9-3.4-0.4s-1.8,1.6-1.8,2.9v22.9l-9.5-7.7
			c-1.4-1.1-3.4-0.9-4.5,0.5s-0.9,3.4,0.5,4.5L75.9,91l-13.2,10.7C61.3,102.8,61.1,104.8,62.2,106.2z M82.6,66.8l11.7,9.4l-11.7,9.4
			V66.8z M82.6,96.4l11.7,9.4l-11.7,9.4V96.4z"/>
	</g>
	<g id="wifi__x28_UPNP_-_Airplay_x29_">
		<g id="g3928">
			<circle id="circle3926" fill="#3B3A3C" cx="56.2" cy="196" r="42.5"/>
		</g>
		<g>
			<path fill="#C7B99A" d="M60.2,222.6c0,2.7-2.2,4.9-5,4.9c-2.7,0-4.9-2.2-4.9-4.9c0-2.8,2.2-5,4.9-5
				C58,217.6,60.2,219.8,60.2,222.6L60.2,222.6z"/>
			<path fill="#C7B99A" d="M56.4,188.2c-9.5,0-18.1,3.3-23.4,8.7l4.4,6.3c3.8-4.8,10.9-8,19-8c7.5,0,14,2.8,18,6.9l4.6-6
				C73.6,191.4,65.5,188.2,56.4,188.2L56.4,188.2z"/>
			<path fill="#C7B99A" d="M55.5,204c-5.4,0-10.5,1.8-14.4,5.1l3.7,5.3c2.8-2.3,6.5-3.6,10.5-3.6c3.8,0,7.3,1.2,10.1,3.2l3.9-5.1
				C65.7,205.8,60.8,204,55.5,204L55.5,204z"/>
			<path fill="#C7B99A" d="M56.3,172.5c-12.7,0-24,4.5-31.8,11.8l4,6c5.8-6.3,16-10.4,27.5-10.4c11.4,0,21.5,4.3,27.3,10.4l4.6-5.9
				C80,177.2,68.7,172.6,56.3,172.5L56.3,172.5z"/>
		</g>
	</g>
	<path id="path3937" fill="#D3D3D3" d="M127.1,31.6H11.6h-2v2v5v3c0,1.1,0.9,2,2,2h115.5c1.1,0,2-0.9,2-2v-3v-5v-2
		C129.1,31.6,127.1,31.6,127.1,31.6z"/>
	<g enable-background="new    ">
		<path d="M28.042,41.333v-7.158h0.879v2.568c0.41-0.476,0.928-0.713,1.553-0.713c0.384,0,0.718,0.076,1.001,0.227
			c0.283,0.152,0.486,0.361,0.608,0.628s0.183,0.654,0.183,1.162v3.286h-0.879v-3.286c0-0.439-0.095-0.759-0.286-0.96
			c-0.19-0.199-0.46-0.3-0.808-0.3c-0.26,0-0.505,0.067-0.735,0.202c-0.229,0.136-0.393,0.318-0.491,0.55s-0.146,0.55-0.146,0.957
			v2.837H28.042z"/>
		<path d="M35.522,40.547l0.127,0.776c-0.248,0.052-0.469,0.078-0.664,0.078c-0.319,0-0.566-0.051-0.742-0.151
			s-0.299-0.233-0.371-0.397c-0.072-0.165-0.107-0.511-0.107-1.038v-2.983H33.12v-0.684h0.645v-1.284l0.874-0.527v1.812h0.884v0.684
			h-0.884v3.032c0,0.251,0.016,0.412,0.046,0.483s0.082,0.129,0.151,0.171s0.17,0.063,0.3,0.063
			C35.234,40.582,35.362,40.57,35.522,40.547z"/>
		<path d="M38.3,40.547l0.127,0.776c-0.248,0.052-0.469,0.078-0.664,0.078c-0.319,0-0.566-0.051-0.742-0.151
			s-0.299-0.233-0.371-0.397c-0.072-0.165-0.107-0.511-0.107-1.038v-2.983h-0.645v-0.684h0.645v-1.284l0.874-0.527v1.812H38.3v0.684
			h-0.884v3.032c0,0.251,0.016,0.412,0.046,0.483s0.082,0.129,0.151,0.171s0.17,0.063,0.3,0.063
			C38.012,40.582,38.141,40.57,38.3,40.547z"/>
		<path d="M39.16,43.321v-7.173h0.801v0.674c0.189-0.264,0.402-0.461,0.64-0.594c0.238-0.131,0.526-0.197,0.864-0.197
			c0.443,0,0.833,0.114,1.172,0.342s0.594,0.549,0.767,0.965c0.172,0.414,0.259,0.869,0.259,1.364c0,0.53-0.095,1.009-0.286,1.433
			c-0.19,0.426-0.467,0.751-0.83,0.977c-0.363,0.227-0.745,0.34-1.145,0.34c-0.293,0-0.556-0.062-0.789-0.186
			s-0.424-0.28-0.574-0.469v2.524H39.16z M39.956,38.77c0,0.667,0.135,1.16,0.405,1.479s0.597,0.479,0.981,0.479
			c0.391,0,0.725-0.165,1.003-0.496c0.278-0.33,0.417-0.842,0.417-1.535c0-0.661-0.136-1.155-0.408-1.484s-0.597-0.493-0.974-0.493
			c-0.375,0-0.706,0.175-0.994,0.524C40.1,37.594,39.956,38.103,39.956,38.77z"/>
		<path d="M44.37,39.786l0.869-0.137c0.049,0.349,0.185,0.615,0.408,0.801s0.535,0.278,0.935,0.278c0.404,0,0.703-0.082,0.898-0.246
			c0.195-0.165,0.293-0.357,0.293-0.579c0-0.198-0.086-0.354-0.259-0.469c-0.121-0.078-0.42-0.178-0.898-0.298
			c-0.645-0.163-1.091-0.304-1.34-0.422c-0.249-0.119-0.438-0.283-0.566-0.494c-0.128-0.209-0.193-0.441-0.193-0.695
			c0-0.231,0.053-0.445,0.159-0.643c0.106-0.196,0.25-0.36,0.432-0.49c0.137-0.101,0.323-0.187,0.559-0.256
			c0.236-0.07,0.489-0.105,0.759-0.105c0.407,0,0.764,0.059,1.072,0.176s0.535,0.275,0.681,0.477
			c0.146,0.199,0.248,0.468,0.303,0.803l-0.859,0.117c-0.039-0.267-0.152-0.476-0.339-0.625s-0.452-0.225-0.793-0.225
			c-0.404,0-0.692,0.066-0.864,0.2s-0.259,0.29-0.259,0.469c0,0.114,0.036,0.217,0.107,0.308c0.072,0.095,0.184,0.173,0.337,0.234
			c0.088,0.032,0.347,0.107,0.776,0.225c0.622,0.166,1.056,0.302,1.301,0.408c0.246,0.105,0.438,0.259,0.579,0.461
			s0.21,0.452,0.21,0.752c0,0.293-0.085,0.568-0.256,0.828c-0.171,0.258-0.417,0.459-0.74,0.6c-0.322,0.143-0.687,0.213-1.094,0.213
			c-0.674,0-1.188-0.14-1.541-0.42S44.467,40.335,44.37,39.786z"/>
		<path d="M49.965,37.149v-1.001h1.001v1.001H49.965z M49.965,41.333v-1.001h1.001v1.001H49.965z"/>
		<path d="M51.84,41.456l2.075-7.402h0.703l-2.07,7.402H51.84z"/>
		<path d="M54.619,41.456l2.075-7.402h0.703l-2.07,7.402H54.619z"/>
		<path d="M58.056,41.333v-5.186h0.786v0.728c0.163-0.254,0.379-0.458,0.649-0.612c0.27-0.155,0.578-0.232,0.923-0.232
			c0.384,0,0.699,0.08,0.945,0.239s0.419,0.383,0.52,0.669c0.41-0.605,0.944-0.908,1.602-0.908c0.514,0,0.91,0.143,1.187,0.428
			c0.277,0.284,0.415,0.723,0.415,1.315v3.56h-0.874v-3.267c0-0.352-0.028-0.604-0.085-0.759c-0.057-0.155-0.16-0.279-0.31-0.374
			s-0.326-0.142-0.527-0.142c-0.365,0-0.667,0.121-0.908,0.363c-0.241,0.243-0.361,0.631-0.361,1.165v3.013h-0.879v-3.369
			c0-0.391-0.072-0.684-0.215-0.879s-0.377-0.293-0.703-0.293c-0.248,0-0.476,0.065-0.686,0.195s-0.362,0.32-0.457,0.571
			s-0.142,0.612-0.142,1.084v2.69H58.056z"/>
		<path d="M66.059,38.741c0-0.96,0.267-1.672,0.801-2.134c0.446-0.384,0.99-0.576,1.631-0.576c0.713,0,1.295,0.233,1.748,0.701
			c0.453,0.467,0.679,1.112,0.679,1.936c0,0.667-0.1,1.192-0.3,1.574c-0.2,0.383-0.492,0.68-0.874,0.892
			c-0.382,0.212-0.8,0.317-1.252,0.317c-0.726,0-1.313-0.232-1.76-0.698S66.059,39.617,66.059,38.741z M66.962,38.741
			c0,0.664,0.145,1.161,0.435,1.491c0.29,0.331,0.654,0.496,1.094,0.496c0.436,0,0.799-0.166,1.089-0.498s0.434-0.838,0.434-1.519
			c0-0.642-0.145-1.127-0.437-1.458c-0.292-0.33-0.653-0.495-1.086-0.495c-0.439,0-0.804,0.164-1.094,0.493
			S66.962,38.077,66.962,38.741z"/>
		<path d="M71.62,38.741c0-0.96,0.268-1.672,0.801-2.134c0.446-0.384,0.99-0.576,1.631-0.576c0.713,0,1.296,0.233,1.748,0.701
			c0.453,0.467,0.679,1.112,0.679,1.936c0,0.667-0.1,1.192-0.3,1.574c-0.2,0.383-0.492,0.68-0.874,0.892
			c-0.383,0.212-0.8,0.317-1.253,0.317c-0.726,0-1.313-0.232-1.76-0.698C71.844,40.287,71.62,39.617,71.62,38.741z M72.523,38.741
			c0,0.664,0.146,1.161,0.435,1.491c0.29,0.331,0.654,0.496,1.094,0.496c0.437,0,0.8-0.166,1.089-0.498
			c0.29-0.332,0.435-0.838,0.435-1.519c0-0.642-0.146-1.127-0.437-1.458c-0.292-0.33-0.653-0.495-1.087-0.495
			c-0.439,0-0.804,0.164-1.094,0.493C72.669,37.581,72.523,38.077,72.523,38.741z"/>
		<path d="M80.873,41.333v-0.654c-0.328,0.515-0.812,0.771-1.45,0.771c-0.413,0-0.793-0.114-1.14-0.342s-0.615-0.546-0.806-0.955
			c-0.19-0.408-0.286-0.878-0.286-1.408c0-0.518,0.087-0.987,0.259-1.408c0.173-0.422,0.432-0.745,0.776-0.97
			c0.346-0.225,0.731-0.337,1.157-0.337c0.313,0,0.591,0.066,0.835,0.197c0.244,0.133,0.443,0.304,0.596,0.516v-2.568h0.874v7.158
			H80.873z M78.095,38.746c0,0.664,0.141,1.16,0.42,1.489c0.28,0.329,0.61,0.493,0.991,0.493c0.385,0,0.711-0.157,0.979-0.471
			c0.269-0.314,0.402-0.794,0.402-1.438c0-0.71-0.137-1.23-0.41-1.563s-0.61-0.498-1.011-0.498c-0.391,0-0.717,0.159-0.979,0.479
			C78.226,37.556,78.095,38.059,78.095,38.746z"/>
		<path d="M86.62,39.664l0.908,0.112c-0.143,0.53-0.408,0.942-0.796,1.235c-0.387,0.293-0.882,0.439-1.484,0.439
			c-0.758,0-1.359-0.233-1.804-0.701c-0.444-0.467-0.667-1.122-0.667-1.965c0-0.872,0.225-1.55,0.674-2.031s1.032-0.723,1.748-0.723
			c0.693,0,1.26,0.236,1.699,0.708s0.659,1.136,0.659,1.992c0,0.052-0.001,0.13-0.005,0.234h-3.867
			c0.033,0.569,0.194,1.006,0.483,1.309c0.29,0.303,0.651,0.454,1.084,0.454c0.322,0,0.598-0.085,0.825-0.254
			C86.307,40.305,86.487,40.035,86.62,39.664z M83.734,38.243h2.896c-0.039-0.437-0.149-0.764-0.332-0.981
			c-0.279-0.339-0.643-0.508-1.089-0.508c-0.403,0-0.743,0.135-1.018,0.405C83.916,37.429,83.764,37.791,83.734,38.243z"/>
		<path d="M88.881,41.333v-1.001h1.001v1.001H88.881z"/>
		<path d="M91.391,41.333v-7.158h0.879v7.158H91.391z"/>
		<path d="M93.305,38.741c0-0.96,0.268-1.672,0.801-2.134c0.446-0.384,0.99-0.576,1.631-0.576c0.713,0,1.296,0.233,1.748,0.701
			c0.453,0.467,0.679,1.112,0.679,1.936c0,0.667-0.1,1.192-0.3,1.574c-0.2,0.383-0.492,0.68-0.874,0.892
			c-0.383,0.212-0.8,0.317-1.253,0.317c-0.726,0-1.313-0.232-1.76-0.698C93.528,40.287,93.305,39.617,93.305,38.741z M94.208,38.741
			c0,0.664,0.146,1.161,0.435,1.491c0.29,0.331,0.654,0.496,1.094,0.496c0.437,0,0.8-0.166,1.089-0.498
			c0.29-0.332,0.435-0.838,0.435-1.519c0-0.642-0.146-1.127-0.437-1.458c-0.292-0.33-0.653-0.495-1.087-0.495
			c-0.439,0-0.804,0.164-1.094,0.493C94.354,37.581,94.208,38.077,94.208,38.741z"/>
		<path d="M102.577,39.434l0.864,0.112c-0.094,0.596-0.336,1.063-0.725,1.398c-0.39,0.338-0.867,0.506-1.434,0.506
			c-0.709,0-1.28-0.232-1.711-0.695c-0.432-0.465-0.647-1.129-0.647-1.995c0-0.56,0.093-1.05,0.278-1.47s0.468-0.734,0.848-0.945
			c0.379-0.209,0.792-0.314,1.237-0.314c0.563,0,1.024,0.143,1.382,0.428c0.358,0.284,0.588,0.688,0.688,1.213l-0.854,0.132
			c-0.081-0.349-0.226-0.61-0.432-0.786c-0.207-0.176-0.457-0.264-0.75-0.264c-0.442,0-0.802,0.158-1.079,0.477
			c-0.276,0.316-0.415,0.819-0.415,1.506c0,0.696,0.134,1.203,0.4,1.519c0.268,0.315,0.615,0.474,1.045,0.474
			c0.346,0,0.634-0.105,0.864-0.317C102.369,40.199,102.516,39.874,102.577,39.434z"/>
		<path d="M107.577,40.694c-0.325,0.276-0.639,0.472-0.939,0.586c-0.302,0.114-0.624,0.171-0.97,0.171
			c-0.569,0-1.007-0.139-1.313-0.418c-0.306-0.277-0.459-0.634-0.459-1.066c0-0.254,0.058-0.486,0.174-0.695
			c0.115-0.211,0.267-0.379,0.454-0.506c0.187-0.127,0.397-0.223,0.632-0.288c0.173-0.046,0.434-0.09,0.781-0.132
			c0.71-0.085,1.232-0.186,1.567-0.303c0.004-0.12,0.005-0.197,0.005-0.229c0-0.358-0.083-0.61-0.249-0.757
			c-0.225-0.198-0.558-0.298-1.001-0.298c-0.413,0-0.719,0.072-0.915,0.218c-0.197,0.145-0.343,0.4-0.438,0.769l-0.859-0.117
			c0.078-0.368,0.207-0.665,0.386-0.892c0.18-0.226,0.438-0.4,0.776-0.521c0.339-0.123,0.731-0.184,1.177-0.184
			c0.443,0,0.803,0.052,1.079,0.156c0.277,0.104,0.48,0.235,0.61,0.393c0.131,0.158,0.222,0.357,0.273,0.599
			c0.029,0.149,0.044,0.42,0.044,0.811v1.172c0,0.817,0.019,1.334,0.057,1.55c0.037,0.217,0.111,0.425,0.222,0.623h-0.918
			C107.662,41.151,107.604,40.938,107.577,40.694z M107.504,38.731c-0.318,0.13-0.797,0.241-1.436,0.332
			c-0.361,0.052-0.616,0.11-0.767,0.176c-0.149,0.065-0.265,0.16-0.347,0.286c-0.081,0.125-0.122,0.264-0.122,0.417
			c0,0.234,0.089,0.43,0.267,0.586c0.177,0.156,0.437,0.234,0.778,0.234c0.339,0,0.64-0.074,0.903-0.222
			c0.264-0.148,0.458-0.352,0.581-0.608c0.095-0.198,0.142-0.491,0.142-0.879V38.731z"/>
		<path d="M109.735,41.333v-7.158h0.879v7.158H109.735z"/>
	</g>
</g>
</svg>
